LUMOS.vcd
$date
	Sat Jan 04 21:58:32 2025
$end
$version
	Icarus Verilog
$end
$timescale
	1ns
$end
$scope module LUMOS_Testbench $end
$var wire 32 ! f0 [31:0] $end
$var wire 32 " f1 [31:0] $end
$var wire 32 # f10 [31:0] $end
$var wire 32 $ f11 [31:0] $end
$var wire 32 % f12 [31:0] $end
$var wire 32 & f13 [31:0] $end
$var wire 32 ' f14 [31:0] $end
$var wire 32 ( f15 [31:0] $end
$var wire 32 ) f16 [31:0] $end
$var wire 32 * f17 [31:0] $end
$var wire 32 + f18 [31:0] $end
$var wire 32 , f19 [31:0] $end
$var wire 32 - f2 [31:0] $end
$var wire 32 . f20 [31:0] $end
$var wire 32 / f21 [31:0] $end
$var wire 32 0 f22 [31:0] $end
$var wire 32 1 f23 [31:0] $end
$var wire 32 2 f24 [31:0] $end
$var wire 32 3 f25 [31:0] $end
$var wire 32 4 f26 [31:0] $end
$var wire 32 5 f27 [31:0] $end
$var wire 32 6 f28 [31:0] $end
$var wire 32 7 f29 [31:0] $end
$var wire 32 8 f3 [31:0] $end
$var wire 32 9 f30 [31:0] $end
$var wire 32 : f31 [31:0] $end
$var wire 32 ; f4 [31:0] $end
$var wire 32 < f5 [31:0] $end
$var wire 32 = f6 [31:0] $end
$var wire 32 > f7 [31:0] $end
$var wire 32 ? f8 [31:0] $end
$var wire 32 @ f9 [31:0] $end
$var wire 32 A memoryData [31:0] $end
$var wire 32 B x0_zero [31:0] $end
$var wire 32 C x10_a0 [31:0] $end
$var wire 32 D x11_a1 [31:0] $end
$var wire 32 E x12_a2 [31:0] $end
$var wire 32 F x13_a3 [31:0] $end
$var wire 32 G x14_a4 [31:0] $end
$var wire 32 H x15_a5 [31:0] $end
$var wire 32 I x16_a6 [31:0] $end
$var wire 32 J x17_a7 [31:0] $end
$var wire 32 K x18_s2 [31:0] $end
$var wire 32 L x19_s3 [31:0] $end
$var wire 32 M x1_ra [31:0] $end
$var wire 32 N x20_s4 [31:0] $end
$var wire 32 O x21_s5 [31:0] $end
$var wire 32 P x22_s6 [31:0] $end
$var wire 32 Q x23_s7 [31:0] $end
$var wire 32 R x24_s8 [31:0] $end
$var wire 32 S x25_s9 [31:0] $end
$var wire 32 T x26_s10 [31:0] $end
$var wire 32 U x27_s11 [31:0] $end
$var wire 32 V x28_t3 [31:0] $end
$var wire 32 W x29_t4 [31:0] $end
$var wire 32 X x2_sp [31:0] $end
$var wire 32 Y x30_t5 [31:0] $end
$var wire 32 Z x31_t6 [31:0] $end
$var wire 32 [ x3_gp [31:0] $end
$var wire 32 \ x4_tp [31:0] $end
$var wire 32 ] x5_t0 [31:0] $end
$var wire 32 ^ x6_t1 [31:0] $end
$var wire 32 _ x7_t2 [31:0] $end
$var wire 32 ` x8_s0 [31:0] $end
$var wire 32 a x9_s1 [31:0] $end
$var wire 1 b trap $end
$var wire 16 c test_product [15:0] $end
$var wire 1 d memoryReadWrite $end
$var wire 1 e memoryEnable $end
$var wire 32 f memoryAddress [31:0] $end
$var parameter 32 g CLK_PERIOD $end
$var reg 1 h clk $end
$var reg 32 i memoryData_reg [31:0] $end
$var reg 1 j memoryReady $end
$var reg 1 k reset $end
$var reg 8 l test_operand_1 [7:0] $end
$var reg 8 m test_operand_2 [7:0] $end
$var integer 32 n i [31:0] $end
$var integer 32 o j [31:0] $end
$scope module multiplier_8bit $end
$var wire 8 p operand_1 [7:0] $end
$var wire 8 q operand_2 [7:0] $end
$var reg 16 r product [15:0] $end
$upscope $end
$scope module uut $end
$var wire 1 h clk $end
$var wire 32 s memoryData [31:0] $end
$var wire 1 j memoryReady $end
$var wire 1 k reset $end
$var wire 32 t readData2 [31:0] $end
$var wire 32 u readData1 [31:0] $end
$var wire 32 v immediate [31:0] $end
$var wire 32 w fpuResult [31:0] $end
$var wire 1 x fpuReady $end
$var wire 32 y fixedPointReadData2 [31:0] $end
$var wire 32 z fixedPointReadData1 [31:0] $end
$var wire 1 { aluZero $end
$var wire 1 | aluSign $end
$var wire 32 } aluResult [31:0] $end
$var parameter 32 ~ RESET_ADDRESS $end
$var reg 32 !" FRS1 [31:0] $end
$var reg 32 "" FRS2 [31:0] $end
$var reg 32 #" RS1 [31:0] $end
$var reg 32 $" RS2 [31:0] $end
$var reg 32 %" aluOperand1 [31:0] $end
$var reg 32 &" aluOperand2 [31:0] $end
$var reg 4 '" aluOperation [3:0] $end
$var reg 32 (" aluResultRegister [31:0] $end
$var reg 1 )" aluSignRegister $end
$var reg 2 *" aluSrcA [1:0] $end
$var reg 2 +" aluSrcB [1:0] $end
$var reg 1 ," aluZeroRegister $end
$var reg 1 -" fixedPointRegisterWriteEnable $end
$var reg 2 ." fixedPointRegisterWriteSource [1:0] $end
$var reg 32 /" fixedPointWriteData [31:0] $end
$var reg 2 0" fpuOperation [1:0] $end
$var reg 32 1" fpuResultRegister [31:0] $end
$var reg 3 2" funct3 [2:0] $end
$var reg 7 3" funct7 [6:0] $end
$var reg 1 4" instructionOrData $end
$var reg 3 5" instructionType [2:0] $end
$var reg 32 6" ir [31:0] $end
$var reg 1 7" irWrite $end
$var reg 32 8" memoryAddress [31:0] $end
$var reg 32 9" memoryDataRegister [31:0] $end
$var reg 1 :" memoryDataRegisterWrite $end
$var reg 1 e memoryEnable $end
$var reg 1 d memoryReadWrite $end
$var reg 5 ;" nextState [4:0] $end
$var reg 7 <" opcode [6:0] $end
$var reg 32 =" pc [31:0] $end
$var reg 1 >" pcWrite $end
$var reg 1 ?" registerWriteEnable $end
$var reg 2 @" registerWriteSource [1:0] $end
$var reg 5 A" state [4:0] $end
$var reg 1 b trap $end
$var reg 32 B" writeData [31:0] $end
$scope module arithmetic_logic_unit $end
$var wire 32 C" operand_1 [31:0] $end
$var wire 32 D" operand_2 [31:0] $end
$var wire 4 E" operation [3:0] $end
$var reg 32 F" result [31:0] $end
$var reg 1 | sign $end
$var reg 1 { zero $end
$upscope $end
$scope module fixed_point_register_file $end
$var wire 1 h clk $end
$var wire 1 G" read_enable_1 $end
$var wire 1 H" read_enable_2 $end
$var wire 5 I" read_index_1 [4:0] $end
$var wire 5 J" read_index_2 [4:0] $end
$var wire 1 k reset $end
$var wire 32 K" write_data [31:0] $end
$var wire 1 -" write_enable $end
$var wire 5 L" write_index [4:0] $end
$var parameter 32 M" DEPTH $end
$var parameter 32 N" WIDTH $end
$var reg 32 O" read_data_1 [31:0] $end
$var reg 32 P" read_data_2 [31:0] $end
$var integer 32 Q" i [31:0] $end
$upscope $end
$scope module fixed_point_unit $end
$var wire 1 h clk $end
$var wire 32 R" operand_1 [31:0] $end
$var wire 32 S" operand_2 [31:0] $end
$var wire 2 T" operation [1:0] $end
$var wire 1 k reset $end
$var wire 32 U" multiplierCircuitResult [31:0] $end
$var parameter 32 V" FBITS $end
$var parameter 32 W" ITER $end
$var parameter 32 X" WIDTH $end
$var reg 34 Y" ac [33:0] $end
$var reg 34 Z" ac_next [33:0] $end
$var reg 5 [" i [4:0] $end
$var reg 3 \" multiplication_stage [2:0] $end
$var reg 16 ]" multiplierCircuitInput1 [15:0] $end
$var reg 16 ^" multiplierCircuitInput2 [15:0] $end
$var reg 3 _" next_multiplication_stage [2:0] $end
$var reg 2 `" next_square_root_stage [1:0] $end
$var reg 32 a" partialProduct1 [31:0] $end
$var reg 32 b" partialProduct2 [31:0] $end
$var reg 32 c" partialProduct3 [31:0] $end
$var reg 32 d" partialProduct4 [31:0] $end
$var reg 64 e" product [63:0] $end
$var reg 1 f" product_ready $end
$var reg 32 g" q [31:0] $end
$var reg 32 h" q_next [31:0] $end
$var reg 1 x ready $end
$var reg 32 i" result [31:0] $end
$var reg 32 j" root [31:0] $end
$var reg 1 k" root_ready $end
$var reg 1 l" sqrt_busy $end
$var reg 1 m" sqrt_start $end
$var reg 2 n" square_root_stage [1:0] $end
$var reg 34 o" test_res [33:0] $end
$var reg 32 p" x [31:0] $end
$var reg 32 q" x_next [31:0] $end
$scope module multiplier_circuit $end
$var wire 16 r" operand_1 [15:0] $end
$var wire 16 s" operand_2 [15:0] $end
$var wire 32 t" product [31:0] $end
$var wire 16 u" partial_product_3 [15:0] $end
$var wire 16 v" partial_product_2 [15:0] $end
$var wire 16 w" partial_product_1 [15:0] $end
$var wire 16 x" partial_product_0 [15:0] $end
$var wire 8 y" operand_2_low [7:0] $end
$var wire 8 z" operand_2_high [7:0] $end
$var wire 8 {" operand_1_low [7:0] $end
$var wire 8 |" operand_1_high [7:0] $end
$scope module MUL_PP_0 $end
$var wire 8 }" operand_1 [7:0] $end
$var wire 8 ~" operand_2 [7:0] $end
$var reg 16 !# product [15:0] $end
$upscope $end
$scope module MUL_PP_1 $end
$var wire 8 "# operand_1 [7:0] $end
$var wire 8 ## operand_2 [7:0] $end
$var reg 16 $# product [15:0] $end
$upscope $end
$scope module MUL_PP_2 $end
$var wire 8 %# operand_1 [7:0] $end
$var wire 8 &# operand_2 [7:0] $end
$var reg 16 '# product [15:0] $end
$upscope $end
$scope module MUL_PP_3 $end
$var wire 8 (# operand_1 [7:0] $end
$var wire 8 )# operand_2 [7:0] $end
$var reg 16 *# product [15:0] $end
$upscope $end
$upscope $end
$upscope $end
$scope module immediate_generator $end
$var wire 32 +# instruction [31:0] $end
$var wire 3 ,# instruction_type [2:0] $end
$var reg 32 -# immediate [31:0] $end
$upscope $end
$scope module register_file $end
$var wire 1 h clk $end
$var wire 1 .# read_enable_1 $end
$var wire 1 /# read_enable_2 $end
$var wire 5 0# read_index_1 [4:0] $end
$var wire 5 1# read_index_2 [4:0] $end
$var wire 1 k reset $end
$var wire 32 2# write_data [31:0] $end
$var wire 1 3# write_enable $end
$var wire 5 4# write_index [4:0] $end
$var parameter 32 5# DEPTH $end
$var parameter 32 6# WIDTH $end
$var reg 32 7# read_data_1 [31:0] $end
$var reg 32 8# read_data_2 [31:0] $end
$var integer 32 9# i [31:0] $end
$upscope $end
$upscope $end
$upscope $end
$enddefinitions $end
$comment Show the parameter values. $end
$dumpall
b100000 6#
b101 5#
b100000 X"
b10101 W"
b1010 V"
b100000 N"
b101 M"
b0 ~
b100 g
$end
#0
$dumpvars
b100000 9#
bx 8#
bx 7#
bz 4#
x3#
bz 2#
bz 1#
bz 0#
1/#
1.#
bz -#
bx ,#
bz +#
bx *#
bz )#
bz (#
bx '#
bz &#
bz %#
bx $#
bz ##
bz "#
bx !#
bz ~"
bz }"
bz |"
bz {"
bz z"
bz y"
bx x"
bx w"
bx v"
bx u"
bx t"
bz s"
bz r"
bx q"
bx p"
bx o"
b0 n"
0m"
xl"
0k"
bx j"
bz i"
bx h"
bx g"
0f"
bx e"
bz d"
bz c"
bz b"
bz a"
b1 `"
b1 _"
bz ^"
bz ]"
b0 \"
b0 ["
bx Z"
bx Y"
bx U"
bz T"
bx S"
bx R"
b100000 Q"
bx P"
bx O"
bz L"
bz K"
bz J"
bz I"
1H"
1G"
bz F"
bz E"
bz D"
bz C"
bz B"
b0 A"
bz @"
z?"
z>"
b0 ="
bz <"
b1 ;"
x:"
bx 9"
bz 8"
z7"
bz 6"
bx 5"
z4"
bz 3"
bz 2"
bx 1"
bz 0"
bz /"
bz ."
z-"
x,"
bz +"
bz *"
x)"
bx ("
bz '"
bz &"
bz %"
bx $"
bx #"
bx ""
bx !"
bz }
z|
0{
bx z
bx y
0x
bz w
bz v
bx u
bx t
bz s
b0 r
b0 q
b0 p
b0 o
b0 n
b0 m
b0 l
1k
0j
bz i
1h
bz f
0e
zd
b0 c
xb
b0 a
b0 `
b0 _
b0 ^
b0 ]
b0 \
b0 [
b0 Z
b0 Y
b0 X
b0 W
b0 V
b0 U
b0 T
b0 S
b0 R
b0 Q
b0 P
b0 O
b0 N
b0 M
b0 L
b0 K
b0 J
b0 I
b0 H
b0 G
b0 F
b0 E
b0 D
b0 C
b0 B
bz A
b0 @
b0 ?
b0 >
b0 =
b0 <
b0 ;
b0 :
b0 9
b0 8
b0 7
b0 6
b0 5
b0 4
b0 3
b0 2
b0 1
b0 0
b0 /
b0 .
b0 -
b0 ,
b0 +
b0 *
b0 )
b0 (
b0 '
b0 &
b0 %
b0 $
b0 #
b0 "
b0 !
$end
#1
b1 m
b1 q
b1 o
#2
b10 m
b10 q
b10 o
0h
#3
b11 m
b11 q
b11 o
#4
b1 ;"
bz 1"
z)"
0,"
bz ("
b100000 Q"
b100000 9#
b100 m
b100 q
b100 o
1h
#5
b101 m
b101 q
b101 o
#6
b110 m
b110 q
b110 o
0h
#7
b111 m
b111 q
b111 o
#8
b100000 9#
b100000 Q"
b1000 m
b1000 q
b1000 o
1h
#9
b1001 m
b1001 q
b1001 o
#10
b1010 m
b1010 q
b1010 o
0h
#11
b1011 m
b1011 q
b1011 o
#12
b100000 Q"
b100000 9#
b1100 m
b1100 q
b1100 o
1h
#13
b1101 m
b1101 q
b1101 o
#14
b1110 m
b1110 q
b1110 o
0h
#15
b1111 m
b1111 q
b1111 o
#16
b100000 9#
b100000 Q"
b10000 m
b10000 q
b10000 o
1h
#17
b10001 m
b10001 q
b10001 o
#18
b10010 m
b10010 q
b10010 o
0h
#19
b10011 m
b10011 q
b10011 o
#20
0k
b100000 Q"
b100000 9#
b10100 m
b10100 q
b10100 o
1h
#21
b10101 m
b10101 q
b10101 o
#22
b10110 m
b10110 q
b10110 o
0h
#23
b10111 m
b10111 q
b10111 o
#24
b0 f
b0 8"
bz A
bz s
04"
0d
1e
b10 ;"
b1 A"
b11000 m
b11000 q
b11000 o
1h
#25
b11001 m
b11001 q
b11001 o
#26
b11010 m
b11010 q
b11010 o
0h
#27
b11011 m
b11011 q
b11011 o
#28
04"
0d
b10 ;"
b10 A"
b11100 m
b11100 q
b11100 o
1h
#29
b11101 m
b11101 q
b11101 o
#30
b11110 m
b11110 q
b11110 o
0h
#31
b11111 m
b11111 q
b11111 o
#32
b100000 m
b100000 q
b100000 o
1h
#33
b100001 m
b100001 q
b100001 o
#34
b100010 m
b100010 q
b100010 o
0h
#35
b100011 m
b100011 q
b100011 o
#36
b100100 m
b100100 q
b100100 o
1h
#37
b100101 m
b100101 q
b100101 o
#38
b100110 m
b100110 q
b100110 o
0h
#39
b100111 m
b100111 q
b100111 o
#40
b101000 m
b101000 q
b101000 o
1h
#41
b101001 m
b101001 q
b101001 o
#42
17"
04"
0d
b11 ;"
1j
b100000100110111 A
b100000100110111 s
b100000100110111 i
b101010 m
b101010 q
b101010 o
0h
#43
b101011 m
b101011 q
b101011 o
#44
0|
b100 &"
b100 D"
b0 %"
b0 C"
bz f
bz 8"
b100 }
b100 F"
b0 t
b0 8#
b0 u
b0 7#
b0 y
b0 P"
b0 z
b0 O"
1>"
b0 '"
b0 E"
b1 +"
b0 *"
0e
z4"
z7"
zd
b100 ;"
b0 0#
b0 1#
b10 4#
b0 I"
b0 J"
b10 L"
b0 3"
b100 2"
b110111 <"
b11 A"
0j
bz A
bz s
bz i
b100000100110111 6"
b100000100110111 +#
b101100 m
b101100 q
b101100 o
1h
#45
b101101 m
b101101 q
b101101 o
#46
b101110 m
b101110 q
b101110 o
0h
#47
b101111 m
b101111 q
b101111 o
#48
z|
bz &"
bz D"
b100000000000000 v
b100000000000000 -#
bz }
bz F"
b1 _"
b100 5"
b100 ,#
bz +"
bz *"
bz '"
bz E"
z>"
b101 ;"
bz %"
bz C"
b100 A"
b100 ="
b0 $"
b0 #"
b0 ""
b0 S"
b0 !"
b0 R"
0)"
b100 ("
b110000 m
b110000 q
b110000 o
1h
#49
b110001 m
b110001 q
b110001 o
#50
b110010 m
b110010 q
b110010 o
0h
#51
b110011 m
b110011 q
b110011 o
#52
0|
b100000000000000 B"
b100000000000000 2#
b100000000000000 &"
b100000000000000 D"
b0 %"
b0 C"
13#
b100000000000000 }
b100000000000000 F"
1?"
b1 @"
b0 '"
b0 E"
b10 +"
b11 *"
b1 ;"
b101 A"
z)"
bz ("
b110100 m
b110100 q
b110100 o
1h
#53
b110101 m
b110101 q
b110101 o
#54
b110110 m
b110110 q
b110110 o
0h
#55
b110111 m
b110111 q
b110111 o
#56
z|
b100 f
b100 8"
bz B"
bz 2#
bz &"
bz D"
bz %"
bz C"
bz A
bz s
x3#
bz }
bz F"
04"
0d
1e
z?"
bz @"
bz +"
bz *"
bz '"
bz E"
b10 ;"
b100000000000000 X
b1 A"
0)"
b100000000000000 ("
b111000 m
b111000 q
b111000 o
1h
#57
b111001 m
b111001 q
b111001 o
#58
b111010 m
b111010 q
b111010 o
0h
#59
b111011 m
b111011 q
b111011 o
#60
04"
0d
b10 ;"
b10 A"
z)"
bz ("
b111100 m
b111100 q
b111100 o
1h
#61
b111101 m
b111101 q
b111101 o
#62
b111110 m
b111110 q
b111110 o
0h
#63
b111111 m
b111111 q
b111111 o
#64
b1000000 m
b1000000 q
b1000000 o
1h
#65
b1000001 m
b1000001 q
b1000001 o
#66
b1000010 m
b1000010 q
b1000010 o
0h
#67
b1000011 m
b1000011 q
b1000011 o
#68
b1000100 m
b1000100 q
b1000100 o
1h
#69
b1000101 m
b1000101 q
b1000101 o
#70
b1000110 m
b1000110 q
b1000110 o
0h
#71
b1000111 m
b1000111 q
b1000111 o
#72
b1001000 m
b1001000 q
b1001000 o
1h
#73
b1001001 m
b1001001 q
b1001001 o
#74
17"
04"
0d
b11 ;"
1j
b11000000000000010000000100010011 A
b11000000000000010000000100010011 s
b11000000000000010000000100010011 i
b1001010 m
b1001010 q
b1001010 o
0h
#75
b1001011 m
b1001011 q
b1001011 o
#76
0|
b100 &"
b100 D"
b100 %"
b100 C"
bz f
bz 8"
b1000 }
b1000 F"
b100000000000000 u
b100000000000000 7#
1>"
b0 '"
b0 E"
b1 +"
b0 *"
0e
z4"
z7"
zd
b100 ;"
b10 0#
b10 I"
b11000000000000010000000000000000 v
b11000000000000010000000000000000 -#
b1100000 3"
b0 2"
b10011 <"
b11 A"
0j
bz A
bz s
bz i
b11000000000000010000000100010011 6"
b11000000000000010000000100010011 +#
b1001100 m
b1001100 q
b1001100 o
1h
#77
b1001101 m
b1001101 q
b1001101 o
#78
b1001110 m
b1001110 q
b1001110 o
0h
#79
b1001111 m
b1001111 q
b1001111 o
#80
z|
bz &"
bz D"
b11111111111111111111110000000000 v
b11111111111111111111110000000000 -#
bz }
bz F"
b1 5"
b1 ,#
bz +"
bz *"
bz '"
bz E"
z>"
b101 ;"
bz %"
bz C"
b100 A"
b1000 ="
b100000000000000 #"
0)"
b1000 ("
b1010000 m
b1010000 q
b1010000 o
1h
#81
b1010001 m
b1010001 q
b1010001 o
#82
b1010010 m
b1010010 q
b1010010 o
0h
#83
b1010011 m
b1010011 q
b1010011 o
#84
0|
b11110000000000 B"
b11110000000000 2#
b11111111111111111111110000000000 &"
b11111111111111111111110000000000 D"
b100000000000000 %"
b100000000000000 C"
13#
b11110000000000 }
b11110000000000 F"
1?"
b1 @"
b0 '"
b0 E"
b10 +"
b1 *"
b1 ;"
b101 A"
z)"
bz ("
b1010100 m
b1010100 q
b1010100 o
1h
#85
b1010101 m
b1010101 q
b1010101 o
#86
b1010110 m
b1010110 q
b1010110 o
0h
#87
b1010111 m
b1010111 q
b1010111 o
#88
z|
b1000 f
b1000 8"
bz B"
bz 2#
bz &"
bz D"
bz %"
bz C"
bz A
bz s
x3#
bz }
bz F"
b11110000000000 u
b11110000000000 7#
04"
0d
1e
z?"
bz @"
bz +"
bz *"
bz '"
bz E"
b10 ;"
b11110000000000 X
b1 A"
0)"
b11110000000000 ("
b1011000 m
b1011000 q
b1011000 o
1h
#89
b1011001 m
b1011001 q
b1011001 o
#90
b1011010 m
b1011010 q
b1011010 o
0h
#91
b1011011 m
b1011011 q
b1011011 o
#92
04"
0d
b10 ;"
b10 A"
z)"
bz ("
b11110000000000 #"
b1011100 m
b1011100 q
b1011100 o
1h
#93
b1011101 m
b1011101 q
b1011101 o
#94
b1011110 m
b1011110 q
b1011110 o
0h
#95
b1011111 m
b1011111 q
b1011111 o
#96
b1100000 m
b1100000 q
b1100000 o
1h
#97
b1100001 m
b1100001 q
b1100001 o
#98
b1100010 m
b1100010 q
b1100010 o
0h
#99
b1100011 m
b1100011 q
b1100011 o
#100
b1100100 m
b1100100 q
b1100100 o
1h
#101
b1100101 m
b1100101 q
b1100101 o
#102
b1100110 m
b1100110 q
b1100110 o
0h
#103
b1100111 m
b1100111 q
b1100111 o
#104
b1101000 m
b1101000 q
b1101000 o
1h
#105
b1101001 m
b1101001 q
b1101001 o
#106
17"
04"
0d
b11 ;"
1j
b11000100000010000000110010011 A
b11000100000010000000110010011 s
b11000100000010000000110010011 i
b1101010 m
b1101010 q
b1101010 o
0h
#107
b1101011 m
b1101011 q
b1101011 o
#108
0|
b100 &"
b100 D"
b1000 %"
b1000 C"
bz f
bz 8"
b1100 }
b1100 F"
1>"
b0 '"
b0 E"
b1 +"
b0 *"
0e
z4"
z7"
zd
b100 ;"
b1000 1#
b11 4#
b1000 J"
b11 L"
b110001000 v
b110001000 -#
b1100 3"
b11 A"
0j
bz A
bz s
bz i
b11000100000010000000110010011 6"
b11000100000010000000110010011 +#
b1101100 m
b1101100 q
b1101100 o
1h
#109
b1101101 m
b1101101 q
b1101101 o
#110
b1101110 m
b1101110 q
b1101110 o
0h
#111
b1101111 m
b1101111 q
b1101111 o
#112
z|
bz &"
bz D"
bz }
bz F"
bz +"
bz *"
bz '"
bz E"
z>"
b101 ;"
bz %"
bz C"
b100 A"
b1100 ="
0)"
b1100 ("
b1110000 m
b1110000 q
b1110000 o
1h
#113
b1110001 m
b1110001 q
b1110001 o
#114
b1110010 m
b1110010 q
b1110010 o
0h
#115
b1110011 m
b1110011 q
b1110011 o
#116
0|
b11110110001000 B"
b11110110001000 2#
b110001000 &"
b110001000 D"
b11110000000000 %"
b11110000000000 C"
13#
b11110110001000 }
b11110110001000 F"
1?"
b1 @"
b0 '"
b0 E"
b10 +"
b1 *"
b1 ;"
b101 A"
z)"
bz ("
b1110100 m
b1110100 q
b1110100 o
1h
#117
b1110101 m
b1110101 q
b1110101 o
#118
b1110110 m
b1110110 q
b1110110 o
0h
#119
b1110111 m
b1110111 q
b1110111 o
#120
z|
b1100 f
b1100 8"
bz B"
bz 2#
bz &"
bz D"
bz %"
bz C"
bz A
bz s
x3#
bz }
bz F"
04"
0d
1e
z?"
bz @"
bz +"
bz *"
bz '"
bz E"
b10 ;"
b11110110001000 [
b1 A"
0)"
b11110110001000 ("
b1111000 m
b1111000 q
b1111000 o
1h
#121
b1111001 m
b1111001 q
b1111001 o
#122
b1111010 m
b1111010 q
b1111010 o
0h
#123
b1111011 m
b1111011 q
b1111011 o
#124
04"
0d
b10 ;"
b10 A"
z)"
bz ("
b1111100 m
b1111100 q
b1111100 o
1h
#125
b1111101 m
b1111101 q
b1111101 o
#126
b1111110 m
b1111110 q
b1111110 o
0h
#127
b1111111 m
b1111111 q
b1111111 o
#128
b10000000 m
b10000000 q
b10000000 o
1h
#129
b10000001 m
b10000001 q
b10000001 o
#130
b10000010 m
b10000010 q
b10000010 o
0h
#131
b10000011 m
b10000011 q
b10000011 o
#132
b10000100 m
b10000100 q
b10000100 o
1h
#133
b10000101 m
b10000101 q
b10000101 o
#134
b10000110 m
b10000110 q
b10000110 o
0h
#135
b10000111 m
b10000111 q
b10000111 o
#136
b10001000 m
b10001000 q
b10001000 o
1h
#137
b10001001 m
b10001001 q
b10001001 o
#138
17"
04"
0d
b11 ;"
1j
b10010000010000111 A
b10010000010000111 s
b10010000010000111 i
b10001010 m
b10001010 q
b10001010 o
0h
#139
b10001011 m
b10001011 q
b10001011 o
#140
0|
b100 &"
b100 D"
b1100 %"
b1100 C"
bz f
bz 8"
b10000 }
b10000 F"
1>"
b0 '"
b0 E"
b1 +"
b0 *"
0e
z4"
z7"
zd
b100 ;"
b0 1#
b1 4#
b0 J"
b1 L"
b0 v
b0 -#
b0 3"
b10 2"
b111 <"
b11 A"
0j
bz A
bz s
bz i
b10010000010000111 6"
b10010000010000111 +#
b10001100 m
b10001100 q
b10001100 o
1h
#141
b10001101 m
b10001101 q
b10001101 o
#142
b10001110 m
b10001110 q
b10001110 o
0h
#143
b10001111 m
b10001111 q
b10001111 o
#144
z|
bz &"
bz D"
bz }
bz F"
bz +"
bz *"
bz '"
bz E"
z>"
b101 ;"
bz %"
bz C"
b100 A"
b10000 ="
0)"
b10000 ("
b10010000 m
b10010000 q
b10010000 o
1h
#145
b10010001 m
b10010001 q
b10010001 o
#146
b10010010 m
b10010010 q
b10010010 o
0h
#147
b10010011 m
b10010011 q
b10010011 o
#148
0|
b0 &"
b0 D"
b11110000000000 %"
b11110000000000 C"
b11110000000000 }
b11110000000000 F"
b0 '"
b0 E"
b10 +"
b1 *"
b1010 ;"
b101 A"
z)"
bz ("
b10010100 m
b10010100 q
b10010100 o
1h
#149
b10010101 m
b10010101 q
b10010101 o
#150
b10010110 m
b10010110 q
b10010110 o
0h
#151
b10010111 m
b10010111 q
b10010111 o
#152
b11110000000000 f
b11110000000000 8"
bz A
bz s
14"
0d
1e
b11 +"
b10 *"
b0 '"
b0 E"
b1011 ;"
b1010 A"
0)"
b11110000000000 ("
b10011000 m
b10011000 q
b10011000 o
1h
#153
b10011001 m
b10011001 q
b10011001 o
#154
b10011010 m
b10011010 q
b10011010 o
0h
#155
b10011011 m
b10011011 q
b10011011 o
#156
14"
b11 +"
b10 *"
b0 '"
b0 E"
0d
b1011 ;"
b1011 A"
b10011100 m
b10011100 q
b10011100 o
1h
#157
b10011101 m
b10011101 q
b10011101 o
#158
b10011110 m
b10011110 q
b10011110 o
0h
#159
b10011111 m
b10011111 q
b10011111 o
#160
b10100000 m
b10100000 q
b10100000 o
1h
#161
b10100001 m
b10100001 q
b10100001 o
#162
b10100010 m
b10100010 q
b10100010 o
0h
#163
b10100011 m
b10100011 q
b10100011 o
#164
b10100100 m
b10100100 q
b10100100 o
1h
#165
b10100101 m
b10100101 q
b10100101 o
#166
b10100110 m
b10100110 q
b10100110 o
0h
#167
b10100111 m
b10100111 q
b10100111 o
#168
b10101000 m
b10101000 q
b10101000 o
1h
#169
b10101001 m
b10101001 q
b10101001 o
#170
1:"
14"
b11 +"
b10 *"
b0 '"
b0 E"
0d
b1100 ;"
1j
b100000000000 A
b100000000000 s
b100000000000 i
b10101010 m
b10101010 q
b10101010 o
0h
#171
b10101011 m
b10101011 q
b10101011 o
#172
z|
b100000000000 /"
b100000000000 K"
bz f
bz 8"
bz &"
bz D"
bz %"
bz C"
bz }
bz F"
0e
1-"
b0 ."
z4"
bz +"
bz *"
bz '"
bz E"
zd
b1 ;"
b1100 A"
0j
bz A
bz s
bz i
b100000000000 9"
b10101100 m
b10101100 q
b10101100 o
1h
#173
b10101101 m
b10101101 q
b10101101 o
#174
b10101110 m
b10101110 q
b10101110 o
0h
#175
b10101111 m
b10101111 q
b10101111 o
#176
b10000 f
b10000 8"
bz /"
bz K"
bz A
bz s
04"
0d
1e
z-"
bz ."
b10 ;"
b100000000000 "
b1 A"
z)"
bz ("
b10110000 m
b10110000 q
b10110000 o
1h
#177
b10110001 m
b10110001 q
b10110001 o
#178
b10110010 m
b10110010 q
b10110010 o
0h
#179
b10110011 m
b10110011 q
b10110011 o
#180
04"
0d
b10 ;"
b10 A"
bz 9"
b10110100 m
b10110100 q
b10110100 o
1h
#181
b10110101 m
b10110101 q
b10110101 o
#182
b10110110 m
b10110110 q
b10110110 o
0h
#183
b10110111 m
b10110111 q
b10110111 o
#184
b10111000 m
b10111000 q
b10111000 o
1h
#185
b10111001 m
b10111001 q
b10111001 o
#186
b10111010 m
b10111010 q
b10111010 o
0h
#187
b10111011 m
b10111011 q
b10111011 o
#188
b10111100 m
b10111100 q
b10111100 o
1h
#189
b10111101 m
b10111101 q
b10111101 o
#190
b10111110 m
b10111110 q
b10111110 o
0h
#191
b10111111 m
b10111111 q
b10111111 o
#192
b11000000 m
b11000000 q
b11000000 o
1h
#193
b11000001 m
b11000001 q
b11000001 o
#194
17"
04"
0d
b11 ;"
1j
b10000010010000100000111 A
b10000010010000100000111 s
b10000010010000100000111 i
b11000010 m
b11000010 q
b11000010 o
0h
#195
b11000011 m
b11000011 q
b11000011 o
#196
0|
b100 &"
b100 D"
b10000 %"
b10000 C"
bz f
bz 8"
b10100 }
b10100 F"
1>"
b0 '"
b0 E"
b1 +"
b0 *"
0e
z4"
z7"
zd
b100 ;"
b100 1#
b10 4#
b100 J"
b10 L"
b100 v
b100 -#
b11 A"
0j
bz A
bz s
bz i
b10000010010000100000111 9"
b10000010010000100000111 6"
b10000010010000100000111 +#
b11000100 m
b11000100 q
b11000100 o
1h
#197
b11000101 m
b11000101 q
b11000101 o
#198
b11000110 m
b11000110 q
b11000110 o
0h
#199
b11000111 m
b11000111 q
b11000111 o
#200
z|
bz &"
bz D"
bz }
bz F"
bz +"
bz *"
bz '"
bz E"
z>"
b101 ;"
bz %"
bz C"
b100 A"
b10100 ="
0)"
b10100 ("
b11001000 m
b11001000 q
b11001000 o
1h
#201
b11001001 m
b11001001 q
b11001001 o
#202
b11001010 m
b11001010 q
b11001010 o
0h
#203
b11001011 m
b11001011 q
b11001011 o
#204
0|
b100 &"
b100 D"
b11110000000000 %"
b11110000000000 C"
b11110000000100 }
b11110000000100 F"
b0 '"
b0 E"
b10 +"
b1 *"
b1010 ;"
b101 A"
z)"
bz ("
b11001100 m
b11001100 q
b11001100 o
1h
#205
b11001101 m
b11001101 q
b11001101 o
#206
b11001110 m
b11001110 q
b11001110 o
0h
#207
b11001111 m
b11001111 q
b11001111 o
